{
	"LANDING_PAGE": {
		"HOME": [
			{
				"INTRO_LINE": "<p>Time to change THE WAY <strong>INDIA</strong> PAYS</p>",
				"SUB_TITLE": "Rechargeable and Contactless Smart Card that Everyone can Use.",
				"IMG_SRC": "/assets/demo/doe_card.png",
				"CONTENT": [
					"DOE is partnered with Sony FeliCa to provide the most secure payment and access experience throughout the country for all services.",
					"Doe facilitates cash, UPI, e-wallet and Card Recharge Facility without any mandatory KYC requirements.",
					"Doe cards can be activated in any Indian State and used across the country providing easy interstate access.",
					"Only a mobile number is required to Activate and use a Doe card.",
					"India can now forget its struggles of handling currency notes and coins for everyday payments and switch to DOE- a one-stop card for everyone and everything."
				],
				"TAG": "TIME_TO_CHANGE"
			},
			{
				"INTRO_LINE": "<p><strong>One Card</strong> for All </p>",
				"SUB_TITLE": "Offline Payment system, Access, Transit, Loyalty Points, and More.",
				"IMG_SRC": "/assets/demo/doe_card_back.png",
				"CONTENT": [
					"DOE cards offer the luxury of convenience to everyone for accessing and making payments across all services <ul><li>Payment:  Metros, Tolls, Retail, Parking, Travel, Railways, and Education</li><li>Access: Residence and Gated Communities, Office, Education, Hospitals and Hotels</li><li>Loyalty: Airlines, Clubs, Restaurants and Petrol Stations.</li></ul>",
					"All transactions take 0.4 seconds & are guaranteed with swift and secure payments",
					"You can now skip those long queues.",
					"Leave behind the complexity of multiple cards and step outside with just a single card for all your needs!"
				],
				"TAG": "ONE_CARD_FOR_ALL"
			},
			{
				"INTRO_LINE": "<p>Our <strong>Country</strong> our <strong>Money</strong></p>",
				"SUB_TITLE": "No KYC required to register; Just tap on the reader to pay.",
				"IMG_SRC": "/assets/demo/place-holder.png",
				"CONTENT": [
					"DOE card enables safe and secure cashless transactions occurring throughout the country.",
					"Doe facilitates cash, UPI, e-wallet and Card Recharge Facility without any mandatory KYC requirements.",
					"When a transaction is made with cash, the additional charge can be loaded onto the Doe card for future use by the consumer.",
					"NO transactional charges will be levied while making payments using Doe cards."
				],
				"TAG": "OUR_COUNTRY"
			}
		],
		"VIDEOS": [
			{
				"src": "https://www.youtube.com/embed/1g4lJQlI_PA",
				"videoid":"1g4lJQlI_PA",
				"thumnail": "/assets/consumer/screenshot.png",
				"playbutton": "/assets/consumer/group-copy-4.png",
				"content": "Product Video",
				"description": "Introducing #DOEcards! One card for Payments, Access, Loyalty."
			},
			{
				"src": "https://www.youtube.com/embed/HKV3B-b-FFA",
				"videoid":"HKV3B-b-FFA",
				"thumnail": "/assets/consumer/screenshot.png",
				"playbutton": "/assets/consumer/group-copy-4.png",
				"content": "Product Video",
				"description": "DOE is rechargable and contactless smart card"
			}
		],
		"FEATURES": {
			"TAG_LINE": "Simplify your everyday transactions using the <strong>DOE</strong> rechargeable payment card.",
			"CONTENT_TABS": {
				"PAYMENTS": {
					"NAME": "PAYMENTS",
					"SUMMARY": "Make offline payments with ease by simply tapping your rechargeable Doe card on the Doe readers.",
					"DESCRIPTION_PART1": "The Sony Felica system ensures to provide complete security to conduct your offline payments on a daily basis with Doe. Just top-up your doe card with your desired amount and carry it around with you everywhere to complete transactions by a simple tapping system. Best suited for your everyday minor transactions. <ul><li>Metros</li><li> Tolls</li><li> Retail</li><li> Parking</li><li> Travel</li><li> Railways</li><li> Education</li></ul>",
					"DESCRIPTION_PART2": ""
				},
				"ACCESS": {
					"NAME": "ACCESS",
					"SUMMARY": "Use Doe cards to access Tolls, parking, apartments and more.",
					"DESCRIPTION_PART1": "Along with being a payment card, Doe also acts as a single card providing access to multiple places such as for Schools, Houses, Toll booths, Parking, Public transport, Community centres etc based on the customers requirement. <ul><li>Residence and Gated Communities</li><li> Office</li><li> Education</li><li> Hospitals </li><li> Hotels</li></ul>",
					"DESCRIPTION_PART2": ""
				},
				"LOYALITY": {
					"NAME": "LOYALITY",
					"SUMMARY": "Maintain your loyalty points with your regular brands with Doe cards.",
					"DESCRIPTION_PART1": "Use Doe cards to award loyalty points to the users when they make a transaction with the card. Avoid carrying multiple loyalty cards and have them all in a single card. <ul><li>Airlines</li><li> Clubs</li><li> Restaurants </li><li> Petrol Stations</li></ul>",
					"DESCRIPTION_PART2": ""
				}
			}
		},
		"SERVICES": {
			"TAG_LINE": "<h1 class='text-center'> Make payments or gain access in all these sectors with</h1><h1 class='text-center'><span class='basic-color'>DOE</span> Cards.</h1>",
			"TAG_LINE_ACCESS": "",
			"TAG_LINE_LOYALITY": "LOYALTY",
			"CONTENT_TABS": {
				"TOLL": {
					"NAME": "TOLL",
					"DESCRIPTION_PART1": "<ul style='text-align: left !important;'><li>Activate your Doe card by simply entering your Mobile number.</li><li>Making a transaction with Doe card takes only 0.4seconds to tap and go at all toll stations across the country.</li><li>Doe cards can act as travel passes for regular travelers.</li><li>Single joinery and double journey within 24hrs for the return journey tickets are available.</li></ul>",
					"DESCRIPTION_PART2": ""
				},
				"METRO": {
					"NAME": "METRO",
					"DESCRIPTION_PART1": "DOE card offers an easy one step solution to ease the life of metro users across the nation",
					"DESCRIPTION_PART2": "Tapping the pre-loaded card at the Metro entry and exit points will automatically deduct the required charges and allows to enter the station at the same time."
				},
				"RETAIL": {
					"NAME": "RETAIL",
					"DESCRIPTION_PART1": "DOE card offers customers an easy way to purchase products and maintain loyalty with brands.",
					"DESCRIPTION_PART2": "Customers can go through a quicker transaction process by simply tapping the card onto the reader available at the retail store to complete transactions. Loyalty programmes help customers build strong relations with their desirable brands."
				},
				"PARKING": {
					"NAME": "PARKING",
					"DESCRIPTION_PART1": "Parking is made much more convenient and faster with Doe card. Tap your doe card on the Doe reader placed at the entry of the parking lot and tap again at the exit. Pay your parking fee automatically when you tap your Doe card onto the Doe reader at the exit.",
					"DESCRIPTION_PART2": "The Doe Reader calculates the parking fee required based on the entry and exit time and completes the payment transaction in just 0.4 seconds. Use Doe card to pay for your parking at multiple locations such as Airport parking, metro, bus, railways, mall, commercial street parking, and Hospitals."
				},
				"BUS": {
					"NAME": "BUS",
					"DESCRIPTION_PART1": "Use doe card to pay for Bus fare and have a smooth journey. For a new user, Purchase your Doe card directly from the conductor of the Bus and activate the card by registering with your Phone number. The conductor of the bus will also help with recharging your Doe card.",
					"DESCRIPTION_PART2": "The doe readers will be placed at the entry and exit of the bus and also with the conductor. Tap onto the reader when you enter the bus and again at the exit. Or tap your Doe card onto the Doe reader held with the Conductor to pay for the ride fare. Concession tickets can also be purchased through the Doe card. "
				},
				"RESIDENCE": {
					"NAME": "RESIDENCE",
					"DESCRIPTION_PART1": "Use doe cards as the Key card to access your gated communities amenities such as gym, clubhouse, pool, sport centres, parking spaces etc. Ensure security and reliability with DOE.",
					"DESCRIPTION_PART2": ""
				},
				"EDUCATION": {
					"NAME": "EDUCATION",
					"DESCRIPTION_PART1": "Students would be provided with ID cards that are printed on the DOE chip enables cards. The Doe readers would be placed inside the school/college bus, At the entrance of the Institute, laboratories, storage units, and libraries. Students would be required to tap their ID Doe cards onto the readers to gain secure and restricted access. Parents would receive a regular massage when their child taps the Doe card onto the Bus reader and the School when they enter and exit.",
					"DESCRIPTION_PART2": "The Doe card also acts as a hostel key card for students to securely access their rooms. Students can make payments at canteens, libraries and other placed within and outside the institute using DOE card. The student can continue using the card for transit and for making purchases occurring outside the Institute premises such as at the metro, bus, retail outlets, gated communities for access, etc."
				},
				"OFFICE": {
					"NAME": "OFFICE",
					"DESCRIPTION_PART1": "Access into the office premises is easily accomplished with the help of DOE card’s quick time interface.",
					"DESCRIPTION_PART2": "Accessing reserved parking spots can also be accomplished by using DOE."
				},
				"RAILWAYS": {
					"NAME": "RAILWAYS",
					"DESCRIPTION_PART1": "Purchase your railway tickets from the Doe Monitors placed outside the platform with your Doe card. The card will hold multiple tickets such as the Platform ticket, General travel ticket as well as your long journey ticket. Doe cards can also hold your concession tickets such as for government employees, Senior citizen tickets and other such passes.",
					"DESCRIPTION_PART2": "Once the ticket has been purchased through the card, it will be saved onto it and presented to the TC on the train. The TC inside would be holding a Doe reader, tap your Doe card onto the reader to present the ticket."
				},
				"ACCESS_RESIDENCE": {
					"NAME": "RESIDENCE",
					"DESCRIPTION_PART1": "Use the Doe card as your home key card. Gain secure access into your homes and rooms using the Doe Key reader and Doe card. Additionally combine the same card to be used for your Gated community to access club home, Main entrance, Lift, Parking and as your ID card. Make payments with the card for payments occurring in the community and outside at retail outlets, transit and more.",
					"DESCRIPTION_PART2": "For private residences, use Doe cards for your house key card access reader. Enable your family’s Doe cards to have the house key feature add on feature and ensure secure access for all."
				},
				"ACCESS_OFFICE": {
					"NAME": "OFFICE",
					"DESCRIPTION_PART1": "You Doe card to securely access your offices. Your exciting Doe card can also be used as your Office ID card and access card to gain entry into the building. The Doe readers placed within the office premises will note down the login and log out when your Doe card is tapped onto it.",
					"DESCRIPTION_PART2": "Use the card to gain access for your reserved parking space, lift, reload the card to make payments at canteens, and for your transit and expenses occurring outside the office premises."
				},
				"ACCESS_EDUCATION": {
					"NAME": "EDUCATIONAL INSTITUTES",
					"DESCRIPTION_PART1": "Students and Staff with Doe ID cards can get access to their schools, colleges, teachers lounges and more by tapping the Doe card onto the reader. The Doe readers will be placed at the Parking lot, School gate, Computer labs, Libraries, Buses, Hotels, Canteen, Gym storage, Teacher’s Lounge, Chemistry Lab and other such primary locations which require restricted access.",
					"DESCRIPTION_PART2": "ID card Facility: Student and faculty will get custom ID cards which are printed onto the DOE cards that are chip-enabled and can have cash preloaded onto it. "
				},
				"ACCESS_GATED_COMMUNITY": {
					"NAME": "GATED COMMUNITIES",
					"DESCRIPTION_PART1": "Residents can enter, exit their respective blocks on tapping the DOE card on the readers.",
					"DESCRIPTION_PART2": ""
				},
				"ACCESS_HOTELS": {
					"NAME": "HOTELS",
					"DESCRIPTION_PART1": "Use your existing DOE card as a room keycard to access your Reserved Rooms. The same card is used to access the hotel amenities and to check in and check out of the Hotel.",
					"DESCRIPTION_PART2": ""
				},
				"ACCESS_HOSPITALS": {
					"NAME": "HOSPITALS",
					"DESCRIPTION_PART1": "Use DOE card to register & book appointments at any Hospital and store your medical history in the card.",
					"DESCRIPTION_PART2": "The same card can be used to pay for hospital bills, pharmacy bills, canteen & access inpatient wards."
				},
				"LOYALTY_AIRLINES": {
					"NAME": "AIRLINES",
					"DESCRIPTION_PART1": "Use Doe card to gather your frequent flyer miles earned from your frequently flown airlines. Provide your Doe card to the Airline official to transfer the points onto the card and enjoy the perks provided.",
					"DESCRIPTION_PART2": "Gain lounge access and food and beverage benefits with the same. Your booking history with the airlines would also be accessed with your Doe card."
				},
				"LOYALTY_CLUBS": {
					"NAME": "CLUBS",
					"DESCRIPTION_PART1": "Make Doe card as your favorite club ID card. Use the Doe card to collect Loyalty Points, Pay for restaurant bills, access club amenities and to note down the Entry and exit time.",
					"DESCRIPTION_PART2": "The same card can be used for services occurring outside the club such as for transit and making payments."
				},
				"LOYALTY_RESTUARENT": {
					"NAME": "RESTUARENTS",
					"DESCRIPTION_PART1": "Collect Loyalty points every time you dine at your favorite Restaurants through Doe card.",
					"DESCRIPTION_PART2": "Make payment for your restaurant expenses using Doe card and use the same card to collect and store your loyalty points."
				},
				"LOYALTY_PETRO_CARDS": {
					"NAME": "PETRO CARDS",
					"DESCRIPTION_PART1": "Use Doe card to join your preferred Petrol station’s membership program to make payments and collect Loyalty points.",
					"DESCRIPTION_PART2": "Doe cards can also be used to make payments for additional services provided at the station, such as for mechanical issues, purchase food and beverage, car cleaning services and more."
				}
			}
		},
		"FAQS": [{
			"id": "",
			"name": "",
			"description": "About DOE Cards",
			"category": "",
			"QNA": [
				{
					"id": "",
					"question": "What is DOE?",
					"answer": " DOE is a rechargeable NFC payment & access card that can be used to pay for various services with a single tap."
				},
				{
					"id": "",
					"question": "Where can a DOE card be used ?",
					"answer": " A single Doe can be used in following sectors for payments, Access & Loyalty services. <ul><li>Transport : Tolls,Cabs,Metro,Parking,Buses,Railway.</li><li> Retail: Food & Beverage outlets,Shopping & Retail outlets,Leisure & Entertainment outlets,Vending machines,Kirana Stores,Hospitals,Supermarkets.</li><li> Access & ID:Government Services,Clubs,Educational Institutions,Offices,Hospitals</li><li>Transport services: taxis and private buses.</li><li> Loyalty:Membership cards, Food & beverages, Petro cards, Airline membership card,Club membership cards,Supermarkets.</li></ul>"
				},
				{
					"id": "",
					"question": "Can the same card be used for all services including access & Loyalty?",
					"answer": "Yes, you do not require a bank account to use a DOE card, just recharge using cash and tap for payments. You will have to link your bank accounts for UPI & other online payment services. "
				},
				{
					"id": "",
					"question": "Do I need internet to pay using doe card?",
					"answer": "Doe card uses NFC technology so there is no need for internet while paying for any service.. "
				},
				{
					"id": "",
					"question": "How long does a transaction take to process on tapping? ",
					"answer": "DOE card takes 0.4 seconds to complete the transaction. "
				},
				{
					"id": "",
					"question": "How secure is the DOE card?",
					"answer": "DOE card is enabled with SONY FeLiCa chip with state of the art security infrastructure ecosystem. In other words it super safe.  "
				},
				{
					"id": "",
					"question": "How do i recharge? ",
					"answer": "DOE card can be easily recharged by the following methods, Cash recharge at any DOE merchant stores. Via DOE app,UPI,Payment gateways,Net Banking  "
				},
				{
					"id": "",
					"question": "How can i get a doe card?",
					"answer": "We are so excited for you to experience the doe card ecosystem. Fill in your details below and we will get back you soon."
				}
			]
		}],
		"CONTACT_US": {
			"ADDRESS": "#14, 12th A Main Rd, Sector 7, HSR Layout,<br> Bengaluru, Karnataka 560102<br> Phone: +91 7760000001<br> Email: contact@doecards.com <br>",
			"SOCIAL_LINKS" : {
				"FB" : "https://www.facebook.com/doe.cards",
				"LINKEDIN" : "https://www.linkedin.com/company/doecards-solutions-pvt-ltd/",
				"INSTAGRAM" : "https://www.instagram.com/doe.cards/",
				"TWITTER":"https://twitter.com/DoeCards"
			}
		}
	},
	"TERMS_OF_USE": [{
		"heading": "",
		"summary": "DOE cards Private limited operates this website (the “Site”) to provide online access to information about DOE cards Private limited and the DOE cards group of companies (collectively, the “Company”) and to provide DOE cards Reader Service. By accessing and using this Site, you agree to be bound by the terms contained herein, including such additional terms applicable to specific areas of this Site as posted on the particular areas of this Site. The Company reserves the right to modify this Site at any time without prior notice. Your use of this Site following any such modifications constitutes your agreement to be bound by the terms as modified.",
		"points": [
			"While the Company endeavours to keep the information appearing on this Site up-to-date, the Company accepts no responsibility for the accuracy or completeness or use of, or any liability to update, the information contained on this Site. ",
			"Links to third party websites or information are provided for your convenience only. If you use these links, you will leave this Site and will be subject to the terms contained on any such third party websites. The Company is not responsible for the availability of any such third party websites. The Company has not reviewed, is not responsible for, and accepts no liability in respect of, any information or opinion contained on any such third party websites.",
			"Due to the nature of the Internet, transactions conducted or email messages sent through this Site may be subject to interruption, transmission blackout, delayed transmission or incorrect data transmission. Under no circumstances shall the Company be held liable for any failure in the communication networks, or the accuracy or timeliness of messages and transactions sent via the Site whatsoever.",
			"The trademarks, logos and the copyright of the content or informatio on this Site are owned by the Company or other service providers authorizing their use on this Site. These may not be used without the written permission of the Company or the relevant intellectual property rights owner.",
			"No part of this Site may be modified, reproduced, stored in a retrieval system, transmitted, copied, distributed or used in any other way or for any purpose without the Company’s prior written consent.",
			"The Company makes no express or implied warranty, representation or endorsement whatsoever with respect to this Site, the service offered via this Site or the content contained herein. The Company does not warrant that the function performed by this Site will be available, uninterrupted, timely, secure or error free.",
			"In no event shall the Company be held liable for any claim, loss, damage, costs and expenses whatsoever, whether direct or indirect, arising out of or in connection with this Site, the service or the content, whether in contract, tort or otherwise, even if the Company has been informed of the possibility of such damage.",
			"Please refer to the section on 'Privacy Policy' regarding the Company’s privacy policy."
		]
	}],
	"PRIVACY_POLICY": [
		{
			"heading": "",
			"summary": "We pledge to meet fully, and where possible exceed, internationally recognised standards of personal data privacy protection in complying with the requirements of the Ordinance. In doing so, we promise to:",
			"points": [
				"collect adequate, but not excessive, Personal Data by lawful and fair means for lawful purposes directly related to our functions and activities;",
				"take all reasonably practicable steps to ensure that all Personal Data collected or retained are accurate, having regard to the purposes for which they are to be used;",
				"ensure that Personal Data are not used where there are reasonable grounds for believing that they are inaccurate, having regard to the purposes for which they are to be used;",
				"erase Personal Data which are no longer necessary for the fulfillment of the purposes for which they are to be used;",
				"use Personal Data only for purposes for which the data were to be used at the time of the collection of the data, unless you have given your express consent for a change of use or such use is required or permitted by the Ordinance or the law of India Special Administrative Region ('India');",
				"take all reasonably practicable steps to ensure that Personal Data are protected against unauthorized or accidental access, processing, erasure or other use;",
				"take all practicable steps to ensure that you can be informed of the kinds of personal data we hold and the main purposes for which the data are to be used; and",
				"allow you to access and request correction of your Personal Data held by us in a manner prescribed by the Ordinance. We may charge you a fee as permitted by the Ordinance in complying with your data access request."
			]
		},
		{
			"heading": "TYPES OF PERSONAL DATA COLLECTED AND HELD",
			"summary": "For the purpose of conducting the Company&#39;s business (including relevant online services), we may collect from you and hold some or all of the Personal Data such as, but not limited to, any or all of the following (according to the product or service you select) to enable us to provide the DOE cards, other related service to you:",
			"points": [
				"Your name;",
				"Your Gender;",
				"Your photographs;",
				"Your bank/credit card account information;",
				"Your preferred language for communications;",
				"Contact details, including contact name, telephone number, email address and residential or permanent address;",
				"Information for the verification of identity, including identification document type, identification number and proof of identity and address;",
				"Your age and date of birth;",
				"Your Nationality; ",
				"Your DOE cards number (only applicable when your identity can be directly or indirectly ascertained from the DOE cards number);",
				"Your DOE cards usage data (only applicable when your identity can be directly or indirectly ascertained from the DOE cards usage data).",
				"We use cookies and page tagging (Javascript and pixel tags) to record the visit to our websites and store the users’ websites preference. The information collected (such as IP address, domain name and/or browsers type) is anonymous aggregated research data, and contains no name or address information or any information that will enable anyone to contact you via telephone, email or any other means. Such information is used for internal analysis on the number of visitors to our websites and general usage patterns to measure the effectiveness and improve the usability of our websites and the services / online advertisements. The data will not be shared with any third party.",
				"Cookies are small bits of information that are automatically stored on a person&#39;s web browser in their computer that can be retrieved by this site. It can be used to identify a computer and it often includes an anonymous unique identifier. Javascript and pixel tags are used to collect statistics on customer usage patterns of our websites and DOE cards online services offered in our websites; for tracking the performance of our online advertisements and to store the users’ preference of our websites. A pixel tag is a transparent image placed on certain webpages to collect data on user activities. Use of such technologies will not collect any personally identifiable data. Most browsers are initially set to accept cookies. If you would so prefer, you can set your browser to disable cookies and/or javascript. However, by disabling them, you may not be able to take full advantage of our website, including online services."
			]
		},
		{
			"heading": "PURPOSES OF KEEPING PERSONAL DATA",
			"summary": "Personal Data of the Holder and O!e Pay Account Holder held by us may be used for the following purposes::",
			"points": [
				"processing an application for our services offered to you from time to time;",
				"conducting customer due diligence as required by law, rules, regulations, codes or guidelines;",
				"management, operation and maintenance of the DOE cards payment system and/or DOE cards O! ePay Service and Card Fund, including audit, and exercising our and your rights under the Conditions;",
				"collecting money due from AAVS Account Holder (as defined in the DOE cards Automatic Add Value Agreement) and/or DOE cards Holder, whether from the AAVS Account (as defined in the DOE cards Automatic Add Value Agreement) or otherwise;",
				"verifying any information and records relating to the Automatic Add Value Service Account Holder and/or the DOE cards Holder;",
				"designing new or improving existing services provided by us, our subsidiaries and our affiliates (that is, our direct holding company and its subsidiaries);",
				"communication by us to you;",
				"investigation of complaints, suspected suspicious transactions and research for service improvement;",
				"prevention or detection of crime; and",
				"disclosure as required by laws, rules, regulations, codes or guidelines."
			]
		},
		{
			"heading": "SECURITY OF PERSONAL DATA",
			"summary": "We treat security as our top priority. We will strive to ensure that Personal Data will be protected against unauthorized or accidental access, processing or erasure. In doing so, we have implemented appropriate physical, electronic and managerial measures and controls to safeguard and secure the Personal Data.:",
			"points": [
				"Our web servers are protected by appropriate firewalls which will be kept up-to-date. However, as the security of ordinary email cannot be guaranteed, you should not send to us any email containing any Personal Data.",

				"We will not keep Personal Data longer than is necessary for the fulfillment of the purposes (including any directly related purpose) for which they are, or are to be, used. We will purge unnecessary Personal Data from our system in accordance with our internal procedures."
			]
		}
	],
	"PARTNERS": {
		"PARTNERS": [
			{
				"NAME": "Famoco",
				"SUMMARY": "",
				"COMPANY_ADDRESS": "",
				"IMAGE": "/assets/famoco.png",
				"DESCRIPTION": "Famoco provides an Enterprise Mobility Management (EMM) solution with a range of secure, remotely managed Android devices. Famoco offers a complete range of dedicated devices, based on a secure Android OS, and connected to a Mobile Device Management platform. It facilitates application deployments and secures data capture for mobile workforce management, mobile payments, urban mobility and identity verification (KYC). Today Famoco is expanding worldwide and has deployed more than 250,000 devices in over 35 countries in just 3 years. Among its customers and partners, it counts prestigious companies such as Orange, ONET, Phoenix Group, Keolis, Alipay, Ingenico, and Airtel. Famoco is a multi-award-winning company with 6 offices worldwide: Paris, Brussels, New Delhi, Singapore, Shenzhen, and Abidjan.",
				"URL": ""
			},
			{
				"NAME": "SONY FeliCa",
				"SUMMARY": "",
				"COMPANY_ADDRESS": "",
				"IMAGE": "/assets/felica.png",
				"DESCRIPTION": "Today, wherever you go, whether at train stations or at convenience stores, you see people enjoying the ease of making payment simply by holding an IC card over a reader/writer. This 'contactless' convenience is made possible by Sony FeliCa contactless IC card technology. Placing the card over a reader/writer activates high-speed data transmission to rewrite the data to the card. The card is suitable for high volumes of transactions, making it environmentally friendly. With its high-security system, FeliCa is used in a wide variety of ways, such as in ticketing systems for public transportations, e-money, and residence door keys. The name FeliCa comes from the word 'felicity', suggesting that the technology is destined to make our daily lives more convenient and enjoyable.",
				"URL": ""
			},
			{
				"NAME": "Baoruh",
				"SUMMARY": "",
				"COMPANY_ADDRESS": "",
				"IMAGE": "/assets/baoruh.png",
				"DESCRIPTION": "BAORUH focuses on providing full suites of hardware solutions including circuit diagram drawing, PCB layout, mechanical design and manufacture, and also embedded software platforms combining real-time operation systems, IP network, safe file systems, USB and industrial protocols into an integrated product with low cost and high performance.",
				"URL": ""
			},
			{
				"NAME": "NEC",
				"SUMMARY": "",
				"COMPANY_ADDRESS": "",
				"IMAGE": "/assets/nec-pos.png",
				"DESCRIPTION": "NEC has been developing and manufacturing optical transceivers for more than 30 years since the dawn of the optical communications era. Based on this extensive experience, we provide high-reliability products that have received a high reputation from customers. Our product support structure includes the North American and European markets in addition to the Japanese market.",
				"URL": ""
			},
			{
				"NAME": "Topwise sz",
				"SUMMARY": "",
				"COMPANY_ADDRESS": "",
				"IMAGE": "/assets/topwise.png",
				"DESCRIPTION": "Topwise Comunication co., Ltd is an international supplier of secure payment terminal devices with strong R&D capabilities, independent manufacturing capabilities, comprehensive product lines. topwise alaways focus on security devices and user experiance, so that we deliver products of superior quality to the customers as a main global POS supplier in payment industry. Topwise has a variety of productssuch as Android POS, traditional Linux POS, mini POS, cash register,  self service kiosk etc.",
				"URL": ""
			}
		],
		"MEMBERS": [],
		"CUSTOMERS": []
	},
	"ABOUT" : {
		"SUMMARY" : "What is DOE card ?",
		"DESCRIPTION" : "A DOE Card is a chip-enabled, contactless payment card which has account balance stored on it and is redeemable to a group of merchants which is in contract with the issuer, facilitating multiple payments with a single card. It is simply a payment solution using a card which works on the basis of NFC (Near Field Communication) offering high-speed data transfer working at a high frequency. This multi-utility card can be used for access and micropayments at toll booths, metro stations, retail outlets, parking lots, bus/railway stations, etc. It can also be used for Identification, Authentication and Data Storage.",
		"MANAGEMENT_TEAM" : [
			{
				"NAME" : "Bhaskar",
				"DESIGNATION": "Founder",
				"IMAGE" : "/assets/baskar.jpg",
				"SOCIAL_LINKS" : ""
			},
			{
				"NAME" : "Shruthi",
				"DESIGNATION": "Director",
				"IMAGE" : "/assets/dummy-image.jpg",
				"SOCIAL_LINKS" : ""
			},
			{
				"NAME" : "Vishveshwar",
				"DESIGNATION": "Associate Director Sales",
				"IMAGE" : "/assets/Vishi.png",
				"SOCIAL_LINKS" : ""
			},
			{
				"NAME" : "Anand",
				"DESIGNATION": "CTO",
				"IMAGE" : "/assets/annand.png",
				"SOCIAL_LINKS" : ""
			}
		],
		"ADVISORS" : [
			{
				"NAME" : "Sri Ram",
				"IMAGE": "/assets/dummy-image.jpg",
				"DESIGNATION":"Advisor",
				"SOCIAL_LINKS" : {
					"linkedin" : ""
				}
			},
			{
				"NAME" : "Krishna",
				"IMAGE": "/assets/dummy-image.jpg",
				"DESIGNATION":"Advisor",
				"SOCIAL_LINKS" : {
					"linkedin" : ""
				}
			}
		]
	},
	"RETAIL": {
		"ABOUT": {
			"INTRO_LINE": "ACCEPT PAYMENTS & <span class='financial-headpart retail_text_color'>BUILD</span> LOYALITY",
			"SUB_TITLE": "Install the DOE reader at your outlet for speedy transactions and a stronger loyalty program.",
			"MERCHANT_DESCRIPTION": {
				"SUMMARY": "",
				"POINTS": [],
				"CONCLUSION": ""
			}
		},
		"FEATURES": {
			"TAG_LINE": "THE <span class='basic-color retail_text_color'>DOE</span> ADVANTAGE",
			"CONTENT_TABS": {
				"CUSTOMER_MANAGEMENT_POS": {
					"NAME": "LOYALTY PROGRAMME",
					"SUMMARY": "Single tap on the reader to process payments and access customer information to build and feed into your loyalty program. ",
					"DESCRIPTION_PART1": "Install Doe Reader at your retail outlet for easy customer management. You can process payments and access customer information to grow your customer data base and feed into your loyalty program when customers simply tap on the reader.",
					"DESCRIPTION_PART2": "Ask your customers to get the DOE card – one single card that can help them make their payments, gain access to places, travel, and earn loyalty rewards."
				},
				"FAST_TRANSACTION_PAYMENTS": {
					"NAME": "FAST TRANSACTION OF PAYMENTS",
					"SUMMARY": "Payments processed within just 0.04 seconds. Serve more customers in less time without any hassles.",
					"DESCRIPTION_PART1": "Get the Doe POS system installed in your outlet along with maintainance. Complete sale transactions from customers with Doe cards and also provide a top-up services to customers.",
					"DESCRIPTION_PART2": "Faster transactions would mean serving more customers in less time. Install the Doe Reader at your retail outlet to ensure a smooth buying process and enhance the experience of your customers."
				},
				"MULTIPLE_UTILITIES": {
					"NAME": "MULTIPLE UTILITIES",
					"SUMMARY": "One card and one reader for all sectors of retail outlets – restaurants, petrol bunks, grocery stores, retail outlets and more. ",
					"DESCRIPTION_PART1": "It doesn’t matter whether you are a restaurant, a café, a salon, or a service station – You can service all your customers by installing a Doe reader in your retail outlet.",
					"DESCRIPTION_PART2": "Make things more convenient for your customers and enjoy a competitive edge in the market. Create a single fast payment system that they can use for making all their purchases."
				},
				"SECURE_PAYMENTS": {
					"NAME": "SECURE PAYMENTS",
					"SUMMARY": "Partnered with SONY FELICA, Doe Card Readers ensure a safe transaction system for the customers.",
					"DESCRIPTION_PART1": "If customer safety is your number one concern, it makes perfect sense to install the Doe reader at your retail outlet. The readers also provide a secure Doe recharge facility through cash, UPI and Card payments for customers to top up their cards at the retail outlets.",
					"DESCRIPTION_PART2": "You can use the Doe card reader to perform contactless transactions and access digital content pertaining to your customers in a safe and easy way. It helps provide a safe buying experience."
				}
			}
		},
		"SERVICES": {
			"RESTUARENT": {
				"NAME": "RESTUARENT",
				"SUMMARY": "",
				"DESCRIPTION_PART1": "Doe tap and pay makes it extremely convenient to Restaurants, cafes, and clubs to accept payments through the Doe cards.",
				"DESCRIPTION_PART2": "Doe readers accept payments made through Doe cards in a single tap. <ul style='text-align: left !important;'><li>Accept split bill payments</li><li>Provide recharge facility to customers</li><li>Doe handheld devices for mobility</li><li> Doe POS system for counter payment collection</li></ul>"
			},
			"FUEL_STATION": {
				"NAME": "FUEL STATION",
				"SUMMARY": "",
				"DESCRIPTION_PART1": "Service more customers by using the Doe readers to accept payments from the customers immediately after filling the vehicles.Provide the Doe readers for accepting payments when customers use additional services at the Fuel station such as maintenance, Food and Beverages and other services provided within the Petrol Station.",
				"DESCRIPTION_PART2": "Additionally provide Customers with Petro card Loyalty programs with the customers existing DOE card."
			},
			"TAXI": {
				"NAME": "TAXI",
				"SUMMARY": "",
				"DESCRIPTION_PART1": "Accept cab fares through the Doe reader placed inside the vehicle. <ul style='text-align: left !important;'><li>Customers can tap their Doe cards on to the readers placed inside to make the payment.</li><li>Receive immediate payments with less waiting period.</li><li>Reduce the handling of cash payments and looking for spare change.</li></ul>",
				"DESCRIPTION_PART2": ""
			},
			"SUPER_MARKET": {
				"NAME": "SUPER MARKET",
				"SUMMARY": "",
				"DESCRIPTION_PART1": "Provide faster and smoother service for customers bt accepting payments through DOE.<ul style='text-align: left !important;'><li>Manage more customers during peak hours of the day by accepting Doe cards through the DOE readers.</li><li>DOE POS system and readers would be placed at each counter to accept payments.</li><li>DOE readers to provide recharge facilities to customers</li><li>Doe card payers would be given loyalty points for every transaction they complete.</li></ul>",
				"DESCRIPTION_PART2": ""
			},
			"VENDING_MACHINES": {
				"NAME": "VENDING MACHINES",
				"SUMMARY": "",
				"DESCRIPTION_PART1": "<ul style='text-align: left !important;'><li>Equip the machines with Doe readers for accepting payments</li><li>Customers can tap their pre-loaded Doe card on to the reader to make the payment and receive the products.</li><li>The readers access the payment info and immediately deduct the desired amount.</li></ul>",
				"DESCRIPTION_PART2": ""
			},
			"SMALL_SHOPS": {
				"NAME": "SMALL SHOPS",
				"SUMMARY": "",
				"DESCRIPTION_PART1": "<ul style='text-align: left !important;'><li>Doe readers placed at Mom & Pop outlets make it convenient for merchants to accept payments from customers with just a tap and pay.</li><li>Handling of spare change is eliminated and merchants can collect the precise amount.</li></ul>",
				"DESCRIPTION_PART2": ""
			}
		},
		"FAQS": [{
				"id": "",
				"name": "",
				"description": "Guest service access",
				"category": "",
				"QNA": [{
						"id": "",
						"question": "Payment procedure for toll merchant?",
						"answer": "Contact toll merchant office"
					},
					{
						"id": "",
						"question": "Payment procedure for toll merchant?",
						"answer": "Contact toll merchant office"
					},
					{
						"id": "",
						"question": "Payment procedure for toll merchant?",
						"answer": "Contact toll merchant office"
					}
				]
			},
			{
				"id": "",
				"name": "",
				"description": "Guest flow",
				"category": "",
				"QNA": [{
						"id": "",
						"question": "GUEST procedure for toll merchant?",
						"answer": "Contact toll merchant office"
					},
					{
						"id": "",
						"question": "Payment procedure for toll merchant?",
						"answer": "Contact toll merchant office"
					},
					{
						"id": "",
						"question": "Payment procedure for toll merchant?",
						"answer": "Contact toll merchant office"
					}
				]
			},
			{
				"id": "",
				"name": "",
				"description": "Merchant Onboarding and device purchase related FAQ topic",
				"category": "",
				"QNA": [{
						"id": "",
						"question": "MERCHANT procedure for toll merchant?",
						"answer": "Contact toll merchant office"
					},
					{
						"id": "",
						"question": "Payment procedure for toll merchant?",
						"answer": "Contact toll merchant office"
					},
					{
						"id": "",
						"question": "Payment procedure for toll merchant?",
						"answer": "Contact toll merchant office"
					}
				]
			},
			{
				"id": "",
				"name": "",
				"description": "Guest payment procedure",
				"category": "",
				"QNA": [{
						"id": "",
						"question": "Payment procedure for toll merchant?",
						"answer": "Contact toll merchant office"
					},
					{
						"id": "",
						"question": "Payment procedure for toll merchant?",
						"answer": "Contact toll merchant office"
					},
					{
						"id": "",
						"question": "Payment procedure for toll merchant?",
						"answer": "Contact toll merchant office"
					}
				]
			}
		]
	},
	"RESIDENCE": {
		"ABOUT": {
			"INTRO_LINE": "PROVIDE <span class='financial-headpart residence_text_color'>SECURE ACCESS</span> TO RESIDENTIAL AREAS WITH THE DOE CARD READER",
			"SUB_TITLE": "A single tap on the reader is all that is required."
		},
		"FEATURES": {
			"TAG_LINE": " <span class='basic-color residence_text_color'>THE DOE</span> ADVANTAGE",
			"CONTENT_TABS": {
				"MULTIPLE_ACCESS": {
					"NAME": "MULTIPLE ACCESS",
					"SUMMARY": "One card to access multiple areas such as club house, library, activity area, and community hall.",
					"DESCRIPTION_PART1": "Doe cards are enabled with the contactless access system which can monitor who is granted permission to access the space. ",
					"DESCRIPTION_PART2": "The Doe key reader installed at Apartments and houses ensures extreme security as only people who have the access to enter the premises can do so with their Doe cards. Ensuring a quick and safe entry into the premises for the residents. "
				},
				"INCREASED_SECURITY": {
					"NAME": "INCREASED SECURITY",
					"SUMMARY": "Prevent unauthorized access to residential areas by installing the Doe Card Reader. ",
					"DESCRIPTION_PART1": "Provide your apartments or gated communities with a single access card. Monitor who’s entering the premises and grant permissions for visitors with their Doe cards",
					"DESCRIPTION_PART2": "Doe cards can also be used as ID Cards ensuring further security for the residents. "
				},
				"EASY_PROCESSING": {
					"NAME": "EASY PROCESSING OF PAYMENTS",
					"SUMMARY": "Resident’s can access their parking spots by just tapping their doe cards onto the readers. Ensuring the complete reduction of outsiders and visitors coming into the premises without clearance from the parking monitor. ",
					"DESCRIPTION_PART1": "For any payments occurring within the residences, Doe card can be used for completing the transactions.",
					"DESCRIPTION_PART2": "Residents can use their existing doe cards to complete such transactions."
				},
				"SEAMLESS_EXPERIANCE": {
					"NAME": "SEAMLESS PARKING EXPERIANCE",
					"SUMMARY": "Smart and contactless, the Doe card lets residents park their vehicles while ensuring security. ",
					"DESCRIPTION_PART1": "Resident’s can access their parking spots by just tapping their doe cards onto the readers.",
					"DESCRIPTION_PART2": "Ensuring the complete reduction of outsiders and visitors coming into the premises without clearance from the parking monitor. "
				}
			}
		}
	},
	"EDUCATION": {
		"ABOUT": {
			"INTRO_LINE": "EASY <span class='parking__financial-headpart education_text_color'>ACCESS</span> TO SCHOOL AND COLLEGE PREMISES WITH THE DOE CARD READER ",
			"SUB_TITLE": "Let students enter with a single tap on the reader."
		},
		"FEATURES": {
			"TAG_LINE": " <span class='basic-color education_text_color'>THE DOE</span> ADVANTAGE",
			"CONTENT_TABS": {
				"SECURE_ACCESS": {
					"NAME": "SECURE ACCESS",
					"SUMMARY": "Doe card makes it easier to prevent unauthorized access to academic institutions.",
					"DESCRIPTION_PART1": "Doe readers help monitor the flow of students within the campus and ensure restricted entry into the premises.",
					"DESCRIPTION_PART2": "Thereby avoiding loiters and outsiders disturb the campus. Visitors would be provided with Visitor cards. "
				},
				"MULTIPLE_ACCESS": {
					"NAME": "MULTIPLE ACCESS POINTS",
					"SUMMARY": " Provide access to school buses, hostels, classrooms, labs and more through one card. ",
					"DESCRIPTION_PART1": "Students would be required to tap their Doe enabled ID cards onto the Doe readers to gain entry to the premises. Institutions can keep a tab on the flow of entry, log in and out timings, restrict unauthorised entry, ensure security and provide safety.",
					"DESCRIPTION_PART2": "Access readers would be installed at prominent spots such as the school entrance, laboratories, teacher’s lounge for teacher's access, hostels, payments at canteens, and other such locations. "
				},
				"TOPUP_PAYMENTS": {
					"NAME": "PAYMENT FACILITY",
					"SUMMARY": "Top up Doe card to make payments at canteens, libraries, stationery outlets and trasit.  ",
					"DESCRIPTION_PART1": "Students and faculty can complete payments occurring within the campus using Doe cards by recharging them. Doe is a country wide card and hence students and faculty can use the card to travel across the country, make payments for transactions occusring outside the campus and also use it as Identification. ",
					"DESCRIPTION_PART2": "Parents can top-up the Student's Doe cards for making payments at canteens, stationary shops, school activities and provide a secure spending experience for students. "
				},
				"PRINTABLE_ID": {
					"NAME": "PRINTABLE IDS",
					"SUMMARY": "Provide Identification Cards through Doe for students and faculty. ",
					"DESCRIPTION_PART1": "The students belonging to schools, colleges and universities will be provided Doe Cards with their respective identifications printed onto the cards",
					"DESCRIPTION_PART2": "The cards are customisable based on the school’s requirements. Compared to the regular ID cards, Student’s ID cards printed onto Doe cards, will be taking a step towards the future which enables them to make payments and grant access into the premises. "
				}
			}
		},
		"FAQS": [
			{
				"id": "",
				"name": "",
				"description": "Guest service access",
				"category": "",
				"QNA": [{
						"id": "",
						"question": "Payment procedure for toll merchant?",
						"answer": "Contact toll merchant office"
					},
					{
						"id": "",
						"question": "Payment procedure for toll merchant?",
						"answer": "Contact toll merchant office"
					},
					{
						"id": "",
						"question": "Payment procedure for toll merchant?",
						"answer": "Contact toll merchant office"
					}
				]
			},
			{
				"id": "",
				"name": "",
				"description": "Guest flow",
				"category": "",
				"QNA": [{
						"id": "",
						"question": "Payment procedure for toll merchant?",
						"answer": "Contact toll merchant office"
					},
					{
						"id": "",
						"question": "Payment procedure for toll merchant?",
						"answer": "Contact toll merchant office"
					},
					{
						"id": "",
						"question": "Payment procedure for toll merchant?",
						"answer": "Contact toll merchant office"
					}
				]
			},
			{
				"id": "",
				"name": "",
				"description": "Merchant Onboarding and device purchase related FAQ topic",
				"category": "",
				"QNA": [{
						"id": "",
						"question": "Payment procedure for toll merchant?",
						"answer": "Contact toll merchant office"
					},
					{
						"id": "",
						"question": "Payment procedure for toll merchant?",
						"answer": "Contact toll merchant office"
					},
					{
						"id": "",
						"question": "Payment procedure for toll merchant?",
						"answer": "Contact toll merchant office"
					}
				]
			},
			{
				"id": "",
				"name": "",
				"description": "Guest payment procedure",
				"category": "",
				"QNA": [{
						"id": "",
						"question": "Payment procedure for toll merchant?",
						"answer": "Contact toll merchant office"
					},
					{
						"id": "",
						"question": "Payment procedure for toll merchant?",
						"answer": "Contact toll merchant office"
					},
					{
						"id": "",
						"question": "Payment procedure for toll merchant?",
						"answer": "Contact toll merchant office"
					}
				]
			}
		],
		"SERVICES": {
			"BUS": {
				"NAME" : "Bus",
				"SUMMARY" : "",
				"DESCRIPTION_PART1" :"Doe card readers will be placed inside all the buses belonging to the school/college. The Students and staff should tap their Doe ID card onto the Readers placed inside the bus to gain entry.",
				"DESCRIPTION_PART2" : "The Doe reader notes down the entry and exit timelines of the Doe card being tapped on to the Doe reader."
			},
			"HOSTEL": {
				"NAME" : "Hostel",
				"SUMMARY" : "",
				"DESCRIPTION_PART1" :"Doe readers will be placed on the door of all hostel rooms which the students can open using their Doe cards.",
				"DESCRIPTION_PART2" : "This ensures secure access to authorized personal only. The card acts as a secure key card for students."
			},
			"CANTEEN": {
				"NAME" : "Canteen",
				"SUMMARY" : "",
				"DESCRIPTION_PART1" :"Doe readers accepting payments will be placed in the canteens for students and staff to make payments using their Doe cards.",
				"DESCRIPTION_PART2" : "The Educational Institute management can have a smooth process in terms of accepting payments occurring within the institute by using the Doe readers for accepting payments and access for students and staff."
			},
			"RESTRICTED_ACCESS": {
				"NAME" : "Restricted Access",
				"SUMMARY" : "",
				"DESCRIPTION_PART1" : "Laboratories, Libraries, Computer Labs, Sports storage units and other such places in the Educational Institutes which require Restricted access will have the Doe reader placed to allow only authorised personal to enter.",
				"DESCRIPTION_PART2" : ""
			},
			"PARKING": {
				"NAME" : "Parking",
				"SUMMARY" : "",
				"DESCRIPTION_PART1" : "Students and faculty can access the premises parking space through Doe card by tapping on the Doe reader placed at the entry point. Provide secure access into the premises and keep a tab on vehicles entering and exiting the place.",
				"DESCRIPTION_PART2" : ""
			}
		}
	},
	"OFFICE": {
		"ABOUT": {
			"INTRO_LINE": "MAKES IT <span class='financial-headpart office_text_color'>EASIER</span> AND <span class='financial-headpart office_text_color'>SAFER</span> TO ACCESS WORKSPACE",
			"SUB_TITLE": "Get the doe card reader installed at your office."
		},
		"FEATURES": {
			"TAG_LINE": " <span class='basic-color office_text_color'>THE DOE</span> ADVANTAGE",
			"CONTENT_TABS": {
				"MULTI_UTILITY": {
					"NAME": "MULTI UTILITY CARD",
					"SUMMARY": " Doe card can be used to access office premises and also make payments at canteens and parking. ",
					"DESCRIPTION_PART1": "Provide employees and staff members with Doe cards to enable access and security identification.",
					"DESCRIPTION_PART2": "A single tap access to members to gain entry into various premises within the office. Employees identification printed on the doe cards can offer faster access and maintain security "
				},
				"PARKING_FACILITIES": {
					"NAME": "PARKING FACILITIES",
					"SUMMARY": "Allow employees and guests to access Office parking space while ensuring security.  ",
					"DESCRIPTION_PART1": "Provide parking facilities only to employees through DOE cards. The doe readers placed at the entry gate would help the employees gain access when they tap their cards on the readers. ",
					"DESCRIPTION_PART2": "Eliminating outsiders to use parking space and retaining reserved parking services to the employees."
				},
				"EASIER_MONITORING": {
					"NAME": "EASIER MONITORING",
					"SUMMARY": "Track the login and logout timings of your employees as they tap their cards on the readers. ",
					"DESCRIPTION_PART1": "Monitor the check in and check out time of your employees by placing the Doe card reader at the entrance of your office door. ",
					"DESCRIPTION_PART2": "As employees would use their DOE ID card to gain entry into the office by tapping the card on the reader, the system records the time of the employee entering the office and the same repeats while exiting the office. "
				}
			}
		},
		"FAQS": [{
				"id": "",
				"name": "",
				"description": "Guest service access",
				"category": "",
				"QNA": [{
						"id": "",
						"question": "Payment procedure for toll merchant?",
						"answer": "Contact toll merchant office"
					},
					{
						"id": "",
						"question": "Payment procedure for toll merchant?",
						"answer": "Contact toll merchant office"
					},
					{
						"id": "",
						"question": "Payment procedure for toll merchant?",
						"answer": "Contact toll merchant office"
					}
				]
			},
			{
				"id": "",
				"name": "",
				"description": "Guest flow",
				"category": "",
				"QNA": [{
						"id": "",
						"question": "Payment procedure for toll merchant?",
						"answer": "Contact toll merchant office"
					},
					{
						"id": "",
						"question": "Payment procedure for toll merchant?",
						"answer": "Contact toll merchant office"
					},
					{
						"id": "",
						"question": "Payment procedure for toll merchant?",
						"answer": "Contact toll merchant office"
					}
				]
			},
			{
				"id": "",
				"name": "",
				"description": "Merchant Onboarding and device purchase related FAQ topic",
				"category": "",
				"QNA": [{
						"id": "",
						"question": "Payment procedure for toll merchant?",
						"answer": "Contact toll merchant office"
					},
					{
						"id": "",
						"question": "Payment procedure for toll merchant?",
						"answer": "Contact toll merchant office"
					},
					{
						"id": "",
						"question": "Payment procedure for toll merchant?",
						"answer": "Contact toll merchant office"
					}
				]
			},
			{
				"id": "",
				"name": "",
				"description": "Guest payment procedure",
				"category": "",
				"QNA": [{
						"id": "",
						"question": "Payment procedure for toll merchant?",
						"answer": "Contact toll merchant office"
					},
					{
						"id": "",
						"question": "Payment procedure for toll merchant?",
						"answer": "Contact toll merchant office"
					},
					{
						"id": "",
						"question": "Payment procedure for toll merchant?",
						"answer": "Contact toll merchant office"
					}
				]
			}
		]
	},
	"TOLL": {
		"ABOUT": {
			"INTRO_LINE": "DOE CARD FOR <span class='toll_text_color'>FASTER</span> MOVEMENT OF VEHICLES AT TOLL POINTS",
			"SUB_TITLE": "Install the Doe Card Reader and provide a smooth journey for travelers."
		},
		"FEATURES": {
			"TAG_LINE": "<span class='toll_text_color'>THE DOE</span> ADVANTAGE.",
			"CONTENT_TABS": {
				"FASTER_TRANSACTIONS": {
					"NAME": "FASTER TRANSACTIONS",
					"SUMMARY": "Get the Doe card reader installed at toll points and process more transactions in 800 milliseconds. ",
					"DESCRIPTION_PART1": "Imagine processing transactions at toll points within seconds. Faster transactions would mean more toll collections. This can be made possible by installing the Doe Reader. A simple tap is all that it requires.",
					"DESCRIPTION_PART2": "Promote the use of Doe Card at toll points – a multi-purpose card that can be used for payments, access, and travel. It is time to make the fast lanes faster and India more efficient."
				},
				"TRAVEL_PASSES": {
					"NAME": "TRAVEL PASSES",
					"SUMMARY": "Provide single, two-way and multiple entry travel passes to Doe users. ",
					"DESCRIPTION_PART1": "Doe card facilitates travellers with topping up their cards based on the number of jouneys they make crossing the same toll. A user can be provided with a single journey fare, same day double journey fare, weekly or monthly journey fares. Provideing the toll operaters a paperless and cashless experience. ",
					"DESCRIPTION_PART2": "By providing travel passes to the Doe users, tolls can operate smoothly as handling of paper slips can be eliminated and accuracy can be maintained."
				},
				"CASH_LESS_PROCESSING": {
					"NAME": "CASH LESS PROCESSING",
					"SUMMARY": "Get rid of the annoyance of handling change. Just tap on the reader to accept the toll. ",
					"DESCRIPTION_PART1": "Counting money and asking for change can waste a lot of time, adding to the annoyance of travelers. Install the Doe Card Reader at your toll points and go cashless. Process transactions with a single tap.",
					"DESCRIPTION_PART2": "Easy to recharge and faster to process, the Doe card can be used for a lot of purposes such as making payments, accessing places, and traveling. Join hands to make India digital and more efficient."
				},
				"MULTI_PURPOSE_CARD": {
					"NAME": "TOP-UP FACILITY",
					"SUMMARY": "Provide Top-Up facility to travellers with the Doe readers. ",
					"DESCRIPTION_PART1": "Provide travelers with the option of recharging their Doe Card at the Toll booths. The payments can be accpeted through UPI, Cash and Card.",
					"DESCRIPTION_PART2": "Provide better serice to travellers by providing Top-Up options and travel passes at the Toll booths. "
				}
			}
		},
		"FAQS": [{
				"id": "",
				"name": "",
				"description": "Guest service access",
				"category": "",
				"QNA": [{
						"id": "",
						"question": "Payment procedure for toll merchant?",
						"answer": "Contact toll merchant office"
					},
					{
						"id": "",
						"question": "Payment procedure for toll merchant?",
						"answer": "Contact toll merchant office"
					},
					{
						"id": "",
						"question": "Payment procedure for toll merchant?",
						"answer": "Contact toll merchant office"
					}
				]
			},
			{
				"id": "",
				"name": "",
				"description": "Guest flow",
				"category": "",
				"QNA": [{
						"id": "",
						"question": "Payment procedure for toll merchant?",
						"answer": "Contact toll merchant office"
					},
					{
						"id": "",
						"question": "Payment procedure for toll merchant?",
						"answer": "Contact toll merchant office"
					},
					{
						"id": "",
						"question": "Payment procedure for toll merchant?",
						"answer": "Contact toll merchant office"
					}
				]
			},
			{
				"id": "",
				"name": "",
				"description": "Merchant Onboarding and device purchase related FAQ topic",
				"category": "",
				"QNA": [{
						"id": "",
						"question": "Payment procedure for toll merchant?",
						"answer": "Contact toll merchant office"
					},
					{
						"id": "",
						"question": "Payment procedure for toll merchant?",
						"answer": "Contact toll merchant office"
					},
					{
						"id": "",
						"question": "Payment procedure for toll merchant?",
						"answer": "Contact toll merchant office"
					}
				]
			},
			{
				"id": "",
				"name": "",
				"description": "Guest payment procedure",
				"category": "",
				"QNA": [{
						"id": "",
						"question": "Payment procedure for toll merchant?",
						"answer": "Contact toll merchant office"
					},
					{
						"id": "",
						"question": "Payment procedure for toll merchant?",
						"answer": "Contact toll merchant office"
					},
					{
						"id": "",
						"question": "Payment procedure for toll merchant?",
						"answer": "Contact toll merchant office"
					}
				]
			}
		]
	},
	"METRO": {
		"ABOUT": {
			"INTRO_LINE": "EXPERIENCE THE <span class='financial-headpart metro_text_color'>EASE OF HANDLING</span> PASSENGERS <br> WITH THE DOE CARD",
			"SUB_TITLE": "Seamless experience of Automatic Fare Collection at every Metro Station in the Country. "
		},
		"FEATURES": {
			"TAG_LINE": "THE <span class='basic-color metro_text_color'> DOE </span> ADVANTAGE",
			"CONTENT_TABS": {
				"INCREASED_EFFICIENCY": {
					"NAME": "INCREASED EFFICIENCY",
					"SUMMARY": "Reduce the rush at the customer counters; Get the Doe card reader installed at Metro Stations. ",
					"DESCRIPTION_PART1": "Finding it difficult to handle too many customers during peak hours? Get the Doe card reader installed at your metro station. Process transactions faster without overworking your staff.",
					"DESCRIPTION_PART2": "Doe cards can be equipped with travel passes for any periodicals and used across all the stations for the travellers to use."
				},
				"BETTER_CUSTOMER_SERVICE": {
					"NAME": "BETTER CUSTOMER SERVICE",
					"SUMMARY": "Increase the efficiency of customer service at your Metro Station by installing the Doe Card reader",
					"DESCRIPTION_PART1": "Meeting the expectations of customers would mean increasing the efficiency and providing better customer service. This can be made easier by installing Doe Card Reader at your Metro Station.",
					"DESCRIPTION_PART2": "Smart and contactless, the Doe card works with a single tap on the reader and proccess withing 800 Milliseconds."
				},
				"CASHLESS_TRANSACTIONS": {
					"NAME": "AUTOMATIC FARE COLLECTION",
					"SUMMARY": "Do away with the annoyance of handling change. Install the Doe Card Reader at Your Metro Station. ",
					"DESCRIPTION_PART1": "Time spent in handling cash can be cut down by installing Doe cards which provide Automatic Fare Collection. Travellrers can enter and exit the station with the Doe card and automaticaly pay the fare charges",
					"DESCRIPTION_PART2": "Provide the facility of recharging the card through the Doe readers for Customers. Ensure a secure payment process and journey for travellers using the Doe readers."
				},
				"ONE_CARD_FOR_ALL": {
					"NAME": "COUNTRY WIDE METRO CARDS",
					"SUMMARY": "Doe Cards can be used across the country at all Metro stations. ",
					"DESCRIPTION_PART1": "Doe card makes it convenient to travel in Metro in any city of India, be it Delhi, Chennai, Bangalore, Mumbai, Hyderabad, Kolkata and others. It is one card that can be used for multiple purposes.",
					"DESCRIPTION_PART2": "Doe card eliminates the need to carry multiple cards for different purposes. Travel anywhere across the country with Doe card being a common point to travel within the cities."
				}
			}
		},
		"FAQS": [{
				"id": "",
				"name": "",
				"description": "Guest service access",
				"category": "",
				"QNA": [{
						"id": "",
						"question": "Payment procedure for toll merchant?",
						"answer": "Contact toll merchant office"
					},
					{
						"id": "",
						"question": "Payment procedure for toll merchant?",
						"answer": "Contact toll merchant office"
					},
					{
						"id": "",
						"question": "Payment procedure for toll merchant?",
						"answer": "Contact toll merchant office"
					}
				]
			},
			{
				"id": "",
				"name": "",
				"description": "Guest flow",
				"category": "",
				"QNA": [{
						"id": "",
						"question": "Payment procedure for toll merchant?",
						"answer": "Contact toll merchant office"
					},
					{
						"id": "",
						"question": "Payment procedure for toll merchant?",
						"answer": "Contact toll merchant office"
					},
					{
						"id": "",
						"question": "Payment procedure for toll merchant?",
						"answer": "Contact toll merchant office"
					}
				]
			},
			{
				"id": "",
				"name": "",
				"description": "Merchant Onboarding and device purchase related FAQ topic",
				"category": "",
				"QNA": [{
						"id": "",
						"question": "Payment procedure for toll merchant?",
						"answer": "Contact toll merchant office"
					},
					{
						"id": "",
						"question": "Payment procedure for toll merchant?",
						"answer": "Contact toll merchant office"
					},
					{
						"id": "",
						"question": "Payment procedure for toll merchant?",
						"answer": "Contact toll merchant office"
					}
				]
			},
			{
				"id": "",
				"name": "",
				"description": "Guest payment procedure",
				"category": "",
				"QNA": [{
						"id": "",
						"question": "Payment procedure for toll merchant?",
						"answer": "Contact toll merchant office"
					},
					{
						"id": "",
						"question": "Payment procedure for toll merchant?",
						"answer": "Contact toll merchant office"
					},
					{
						"id": "",
						"question": "Payment procedure for toll merchant?",
						"answer": "Contact toll merchant office"
					}
				]
			}
		]
	},
	"PARKING": {
		"ABOUT": {
			"INTRO_LINE": "ALLOCATE PARKING SPACES WITH A <span class='parking_text_color'>SINGLE TAP</span> ON THE READER",
			"SUB_TITLE": " Partner with Doe to add to the convenience of your customers."
		},
		"FEATURES": {
			"TAG_LINE": "<span class='basic-color parking_text_color'>THE DOE</span> ADVANTAGE",
			"CONTENT_TABS": {
				"EASY_PARKING": {
					"NAME": "EASY PARKING",
					"SUMMARY": "Make it more convenient for your customers to access parking lots. Install the Doe Card Reader.",
					"DESCRIPTION_PART1": "Accessing parking spaces shouldn’t be a hassle for your customers. Make it as convenient as possible by installing the Doe Card Reader. Partner with Doe to find out what you need to do.",
					"DESCRIPTION_PART2": "Doe Card is a multi-utility card that can be used for various purposes such as making payments, traveling, accessing places, earning loyalty rewards, paying toll, and gaining parking space."
				},
				"INCREASED_SECURITY": {
					"NAME": "INCREASED SECURITY",
					"SUMMARY": "Tap once on the Doe Card Reader and get rid of worries about letting in unauthorized people.",
					"DESCRIPTION_PART1": "Unauthorized access is one of the major issues in parking areas, be it in residential complexes or private offices. With the Doe Card Reader installed, allocating parking spaces can be safe and convenient.",
					"DESCRIPTION_PART2": "Ask your customers to get the Doe card and make life convenient. It is one card that they can use for everything from making payments to accessing places, traveling to paying toll, and earning loyalty."
				},
				"FASTER_ALLOCATION": {
					"NAME": "FASTER ALLOCATION",
					"SUMMARY": "Allocate parking spaces to customers within seconds with the Doe card reader. No more waiting.",
					"DESCRIPTION_PART1": "Waiting for long time in the queue can be annoying for your customers, when it comes to looking for parking spaces. Just tap on the doe card reader and allocate parking spaces within a few seconds.",
					"DESCRIPTION_PART2": "In today’s world where time is money, Doe card can prove to be very valuable to everyone. It is one card that can be used for multiple purposes such as making payments, traveling, accessing places, and more."
				},
				"HASSLE_FREE_PROCESSING": {
					"NAME": "HASSLE FREE PROCESSING",
					"SUMMARY": "Install the Doe Card Reader at your Parking Areas and get rid of the hassles of handling change.",
					"DESCRIPTION_PART1": "Paying cash at designated parking spaces might prove to be very time consuming and annoying for everyone. Install the Doe card reader and make this entire process, cashless and convenient.",
					"DESCRIPTION_PART2": "Smart and contactless, the Doe card works with just a single tap on the reader. It is time-saving and efficient and can be used for a number of purposes other than just gaining access to parking areas."
				}
			}
		},
		"FAQS": [
			{
				"id": "",
				"name": "",
				"description": "Guest service access",
				"category": "",
				"QNA": [{
						"id": "",
						"question": "Payment procedure for toll merchant?",
						"answer": "Contact toll merchant office"
					},
					{
						"id": "",
						"question": "Payment procedure for toll merchant?",
						"answer": "Contact toll merchant office"
					},
					{
						"id": "",
						"question": "Payment procedure for toll merchant?",
						"answer": "Contact toll merchant office"
					}
				]
			},
			{
				"id": "",
				"name": "",
				"description": "Guest flow",
				"category": "",
				"QNA": [{
						"id": "",
						"question": "Payment procedure for toll merchant?",
						"answer": "Contact toll merchant office"
					},
					{
						"id": "",
						"question": "Payment procedure for toll merchant?",
						"answer": "Contact toll merchant office"
					},
					{
						"id": "",
						"question": "Payment procedure for toll merchant?",
						"answer": "Contact toll merchant office"
					}
				]
			},
			{
				"id": "",
				"name": "",
				"description": "Merchant Onboarding and device purchase related FAQ topic",
				"category": "",
				"QNA": [{
						"id": "",
						"question": "Payment procedure for toll merchant?",
						"answer": "Contact toll merchant office"
					},
					{
						"id": "",
						"question": "Payment procedure for toll merchant?",
						"answer": "Contact toll merchant office"
					},
					{
						"id": "",
						"question": "Payment procedure for toll merchant?",
						"answer": "Contact toll merchant office"
					}
				]
			},
			{
				"id": "",
				"name": "",
				"description": "Guest payment procedure",
				"category": "",
				"QNA": [{
						"id": "",
						"question": "Payment procedure for toll merchant?",
						"answer": "Contact toll merchant office"
					},
					{
						"id": "",
						"question": "Payment procedure for toll merchant?",
						"answer": "Contact toll merchant office"
					},
					{
						"id": "",
						"question": "Payment procedure for toll merchant?",
						"answer": "Contact toll merchant office"
					}
				]
			}
		],
		"SERVICES": {
			"AIRPORT": {
				"NAME": "AIRPORT",
				"SUMMARY": "",
				"DESCRIPTION_PART1": "Doe readers will be placed at the entry and exit and will calculate the timelines automatically and collect payments accordingly. Provide VIP access to the customer's existing Doe card.",
				"DESCRIPTION_PART2": "Manage Parking for Taxi companies by using Doe readers and allocating payments accordingly. Provide Customers with daily and Monthly Passes with their existing Doe cards."
			},
			"RAILWAYS": {
				"NAME": "RAILWAYS",
				"SUMMARY": "",
				"DESCRIPTION_PART1": "Calculate the entry and exit time of the vehicles entering the railway parking lot with their Doe card and collect the parking fee with the same card.",
				"DESCRIPTION_PART2": "Provide daily or weekly or monthly passes to regular visitors on their Doe card. "
			},
			"MALLS": {
				"NAME": "MALLS",
				"SUMMARY": "",
				"DESCRIPTION_PART1": "Automatically calculate the parking fee of customers when they tap their Doe card on to the Doe reader while entering the parking lot and tap the same card on the Doe reader placed at the exit of the parking lot.",
				"DESCRIPTION_PART2": "Manage regular visitors parking, valet parking, and reserved parking with ease using the Doe Readers and the user’s Doe card."
			},
			"BUS_STAND": {
				"NAME": "BUS STAND",
				"SUMMARY": "",
				"DESCRIPTION_PART1": "Calculate the entry and exit time of the vehicles entering the Bus stand parking lot with their Doe card and collect the parking fee with the same card.",
				"DESCRIPTION_PART2": "Provide daily or weekly or monthly passes to regular visitors on their Doe card."
			},
			"TEMPLES": {
				"NAME": "TEMPLES",
				"SUMMARY": "",
				"DESCRIPTION_PART1": "Calculate the entry and exit time of the vehicles entering the Bus stand parking lot with their Doe card and collect the parking fee with the same card.",
				"DESCRIPTION_PART2": "Provide daily or weekly or monthly passes to regular visitors on their Doe card."
			},
			"COMMERCIAL_STREET": {
				"NAME": "COMMERCIAL STREET PARKING",
				"SUMMARY": "",
				"DESCRIPTION_PART1": "Street pay and parking spots can collect fees conveniently from the user when they tap their Doe cards onto the Doe readers placed near the parking space.",
				"DESCRIPTION_PART2": "The reader automatically calculates the duration of which the car has been parked and deducts the amount immediately when the card is tapped on the reader."
			}
		}
	},
	"BUS": {
		"ABOUT": {
			"INTRO_LINE": " Manage your <span class='financial-headpart bus_text_color'>fleet</span> and <span class='financial-headpart bus_text_color'>travellers</span> with Doe",
			"SUB_TITLE": "Install Doe readers inside the bus and at the depot to streamline the process of ticket collection. "
		},
		"FEATURES": {
			"TAG_LINE": "<span class='basic-color bus_text_color'>THE DOE</span> ADVANTAGE",
			"CONTENT_TABS": {
				"PAPERLESS_TICKETING": {
					"NAME": "Paperless Ticketing",
					"SUMMARY": "DOE cards act as tickets when scanned on the reader. Thereby avoiding the usage of paper.",
					"DESCRIPTION_PART1": " Doe is a chip enabled card which can hold information regarding the ticket details of the travellers and present the same when the card is tapped on the reader. Conductors can view the journey details of the travellers and at the same time collect payment when the card is tapped on the Doe reader present inside the bus.",
					"DESCRIPTION_PART2": "As the tickets can be viewed on the reader, the necessity for paper is reduced and the travellers can pay and present tickets at the same time with their Doe cards."
				},
				"TRAVEL_PASS": {
					"NAME": "Travel Pass",
					"SUMMARY": "Provide single or multiple journey passes to travellers through Doe cards.",
					"DESCRIPTION_PART1": "Regular travellers who use the same bus or travel on the same route can store their pass details on their Doe cards. The conductors can accept payments and allow access based on the travel pass type held by the traveller when they tap their cards onto the readers. Multiple travellers can be handled efficiently through Doe, when they tap their cards onto the readers as they enter buses.",
					"DESCRIPTION_PART2": "Bus conductors can efficiently manage and process travel passes held by multiple  travellers and also provide new passes to travellers using the readers."
				},
				"FLEET_ROUTE_MANAGEMENT": {
					"NAME": "Fleet and Route Management",
					"SUMMARY": "Depots and corporates can track and manage the flow of multiple busses throughout the day with Doe.",
					"DESCRIPTION_PART1": "Depots have to maintain the flow and route of multiple buses entering and exiting the premises. These buses can be tracked and the route’s can be overlooked through the help of Doe readers placed inside the vehicles. Maintenance of buses for identifying the routes, repairs and services can be pointed out with the Doe readers.",
					"DESCRIPTION_PART2": ""
				},
				"EMPLOYED_ID_ACCESS": {
					"NAME": "Employee Id and Access ",
					"SUMMARY": " Bus drivers, Conductors and other employees would have their ID cards printed onto their Doe cards to Log in and out. ",
					"DESCRIPTION_PART1": " Doe card being a multi purpose card can have employee ID cards printed onto the cards which can be used by employees to log in to work and log out on their way out. Bus management can allocate the drivers and conductors and locate them using Doe cards. Bus assignment and management of staff is streamlined with Doe readers and cards.",
					"DESCRIPTION_PART2": ""
				}
			}
		},
		"FAQS": [{
				"id": "",
				"name": "",
				"description": "Guest service access",
				"category": "",
				"QNA": [{
						"id": "",
						"question": "Payment procedure for toll merchant?",
						"answer": "Contact toll merchant office"
					},
					{
						"id": "",
						"question": "Payment procedure for toll merchant?",
						"answer": "Contact toll merchant office"
					},
					{
						"id": "",
						"question": "Payment procedure for toll merchant?",
						"answer": "Contact toll merchant office"
					}
				]
			},
			{
				"id": "",
				"name": "",
				"description": "Guest flow",
				"category": "",
				"QNA": [{
						"id": "",
						"question": "Payment procedure for toll merchant?",
						"answer": "Contact toll merchant office"
					},
					{
						"id": "",
						"question": "Payment procedure for toll merchant?",
						"answer": "Contact toll merchant office"
					},
					{
						"id": "",
						"question": "Payment procedure for toll merchant?",
						"answer": "Contact toll merchant office"
					}
				]
			},
			{
				"id": "",
				"name": "",
				"description": "Merchant Onboarding and device purchase related FAQ topic",
				"category": "",
				"QNA": [{
						"id": "",
						"question": "Payment procedure for toll merchant?",
						"answer": "Contact toll merchant office"
					},
					{
						"id": "",
						"question": "Payment procedure for toll merchant?",
						"answer": "Contact toll merchant office"
					},
					{
						"id": "",
						"question": "Payment procedure for toll merchant?",
						"answer": "Contact toll merchant office"
					}
				]
			},
			{
				"id": "",
				"name": "",
				"description": "Guest payment procedure",
				"category": "",
				"QNA": [{
						"id": "",
						"question": "Payment procedure for toll merchant?",
						"answer": "Contact toll merchant office"
					},
					{
						"id": "",
						"question": "Payment procedure for toll merchant?",
						"answer": "Contact toll merchant office"
					},
					{
						"id": "",
						"question": "Payment procedure for toll merchant?",
						"answer": "Contact toll merchant office"
					}
				]
			}
		]
	},
	"RAILWAYS": {
		"ABOUT": {
			"INTRO_LINE": " <span class='financial-headpart railways_text_color'>Hassle free</span>  tickets for Indian Railways. Buy tickets across India with DOE Cards.",
			"SUB_TITLE": "Buy platform tickets, long journey & sub urban tickets without logging in into multiple applications."
		},
		"FEATURES": {
			"TAG_LINE": "<span class='basic-color railways_text_color'>THE DOE</span> ADVANTAGE",
			"CONTENT_TABS": {
				"PAPERLESS_TICKETING": {
					"NAME": "Doe readers for checking and issuing tickets",
					"SUMMARY": "Use the Doe reader to cross check travellers Tickets when their Doe card is tapped on the Doe reader.",
					"DESCRIPTION_PART1": "",
					"DESCRIPTION_PART2": ""
				},
				"TRAVEL_PASS": {
					"NAME": "Issue Multiple Tickets",
					"SUMMARY": " Issue travellers with their platform ticket and their Journey tickets on their existing Doe card.",
					"DESCRIPTION_PART1": "",
					"DESCRIPTION_PART2": ""
				},
				"FLEET_ROUTE_MANAGEMENT": {
					"NAME": "Provide Easy booking and cancellation",
					"SUMMARY": "Travelers can avail the opportunity to book tickets with more ease and also cancel without hindrance using their Doe card.",
					"DESCRIPTION_PART1": "",
					"DESCRIPTION_PART2": ""
				},
				"EMPLOYED_ID_ACCESS": {
					"NAME": "Ticketless travel experience",
					"SUMMARY": "Provide tickets to travellers on their existing Doe cards.",
					"DESCRIPTION_PART1": "",
					"DESCRIPTION_PART2": ""
				}
			}
		},
		"FAQS": [{
				"id": "",
				"name": "",
				"description": "Guest service access",
				"category": "",
				"QNA": [{
						"id": "",
						"question": "Payment procedure for toll merchant?",
						"answer": "Contact toll merchant office"
					},
					{
						"id": "",
						"question": "Payment procedure for toll merchant?",
						"answer": "Contact toll merchant office"
					},
					{
						"id": "",
						"question": "Payment procedure for toll merchant?",
						"answer": "Contact toll merchant office"
					}
				]
			},
			{
				"id": "",
				"name": "",
				"description": "Guest flow",
				"category": "",
				"QNA": [{
						"id": "",
						"question": "Payment procedure for toll merchant?",
						"answer": "Contact toll merchant office"
					},
					{
						"id": "",
						"question": "Payment procedure for toll merchant?",
						"answer": "Contact toll merchant office"
					},
					{
						"id": "",
						"question": "Payment procedure for toll merchant?",
						"answer": "Contact toll merchant office"
					}
				]
			},
			{
				"id": "",
				"name": "",
				"description": "Merchant Onboarding and device purchase related FAQ topic",
				"category": "",
				"QNA": [{
						"id": "",
						"question": "Payment procedure for toll merchant?",
						"answer": "Contact toll merchant office"
					},
					{
						"id": "",
						"question": "Payment procedure for toll merchant?",
						"answer": "Contact toll merchant office"
					},
					{
						"id": "",
						"question": "Payment procedure for toll merchant?",
						"answer": "Contact toll merchant office"
					}
				]
			},
			{
				"id": "",
				"name": "",
				"description": "Guest payment procedure",
				"category": "",
				"QNA": [{
						"id": "",
						"question": "Payment procedure for toll merchant?",
						"answer": "Contact toll merchant office"
					},
					{
						"id": "",
						"question": "Payment procedure for toll merchant?",
						"answer": "Contact toll merchant office"
					},
					{
						"id": "",
						"question": "Payment procedure for toll merchant?",
						"answer": "Contact toll merchant office"
					}
				]
			}
		]
	},
	"MERCHANT": {
		"HOME": {
			"PAYMENTS": {
				"NAME": "PAYMENTS",
				"SUMMARY": "Doe card, is a chip enabled cashless offline payment system compatible to be used across the country.",
				"DESCRIPTION_PART1": " Merchants from across various sectors can accept payments made through DOE with ease and convenience. The Hassle of handling cash, change and managing multiple customers is made more efficient by using Doe readers as the time involved for a single transaction to be completed is as fast as 0.04 seconds",
				"DESCRIPTION_PART2": "There by resulting in faster transaction, better queue management and an elevated customer service. Doe readers can additionally provide recharge facilities to users in a secure manner. Doe is partnered with Sony FeliCa, the NFC card system that assures security and reliability."
			},
			"ACCESS": {
				"NAME": "ACCESS",
				"SUMMARY": "Doe card provides secure and reliable access facilities to users when they tap on the DOE readers placed at strategic points.",
				"DESCRIPTION_PART1": "The DOE readers provide multiple access point facilities and safe entry for authorized personal. The readers are enabled with the required software to identify the Doe card user and stores information regarding the entry and exit time, Number of entries and restricted entry for guest users.",
				"DESCRIPTION_PART2": "ID Facility: The cards are available for customized printing specifically for Identification purposes used at Educational Institutions, Offices, Gated Communities and more."
			},
			"LOYALITY": {
				"NAME": "LOYALTY",
				"SUMMARY": "Doe Readers enable merchants to reward customers through Loyalty points which get stored in the Doe cards.",
				"DESCRIPTION_PART1": "A customer card is equipped with a chip, which can hold data for Merchants to assign points after making a transaction with the DOE card.  The card can hold up to 5 individual loyalty programmers belonging to any 5 outlets. Merchants can access the information regarding the customers purchases and create their specific loyalty program to reward customers.",
				"DESCRIPTION_PART2": " Through the Doe readers, the database of the customers is securely stored for the merchants to access. Loyalty programs are used across various industries such as retail, petrol stations, airports, airline companies, cab services, Restaurants and cafes."
			}
		}
	},
	"CORPORATE_LANDING_PAGE": {
		"HOME": [{
				"INTRO_LINE": "Providing a Seamless <span class='basic-color'> Payment, Access and Loyalty</span> service for India",
				"SUB_TITLE": "Know more about our <span [routerLink]='['/aboutus']'>Team</span> and <span [routerLink]='['/aboutus']'>Partners</span>.",
				"IMG_SRC": "assets/images/demo/doe_card@3x.png",
				"CONTENT": [],
				"TAG": "SEAN_LESS_PAYMENT"
			}
		],
		"VIDEOS": [{
			"src": "https://www.youtube.com/embed/1g4lJQlI_PA",
			"thumnail": "assets/images/demo/screenshot.png",
			"playbutton": "assets/images/demo/group-copy-4.png",
			"content": "Product Video",
			"description": "Introducing #DOEcards! One card for Payments, Access, Loyalty."
		},
		{
			"src": "https://www.youtube.com/embed/HKV3B-b-FFA",
			"thumnail": "assets/images/demo/screenshot.png",
			"playbutton": "assets/images/demo/group-copy-4.png",
			"content": "Product Video",
			"description": "DOE is rechargable and contactless smart card"
		}
		]
	},
	"ACCESS": {
		"ABOUT": {
			"INTRO_LINE": "Provide access service to your patrons in the most <span class='financial-headpart access_text_color'>simplified</span> way.",
			"SUB_TITLE": "All your access needs are now combined into one single DOE card."
		},
		"SERVICES": {
			"EDUCATION": {
				"NAME": "EDUCATIONAL INSTITUTES",
				"SUMMARY": "",
				"DESCRIPTION_PART1": "Provide Students and stall members with Identification cards equipped as access cards.",
				"DESCRIPTION_PART2": ""
			},
			"APARTMENTS": {
				"NAME": "APARTMENTS / GATED COMMUNITY",
				"SUMMARY": "",
				"DESCRIPTION_PART1": "Provide identification cards to residents, staff members, security personnel and guests with Doe access cards.",
				"DESCRIPTION_PART2": "Houses: Doe access cards are equipped with Sony FeliCa and provide a secure access facility to your homes by acting as a house key card."
			},
			"OFFICES": {
				"NAME": "OFFICES",
				"SUMMARY": "",
				"DESCRIPTION_PART1": "Provide employees with Doe identification cards to provide access to the building and store their login and log out timing information accurately.",
				"DESCRIPTION_PART2": ""
			},
			"HOTEL": {
				"NAME": "HOTELS",
				"SUMMARY": "",
				"DESCRIPTION_PART1": "Provide guests with access to their hotel rooms by using their existing Doe cards. ",
				"DESCRIPTION_PART2": ""
			},
			"CLUBS": {
				"NAME": "VENDING MACHINES",
				"SUMMARY": "",
				"DESCRIPTION_PART1": "<ul style='text-align: left !important;'><li>Equip the machines with Doe readers for accepting payments</li><li>Customers can tap their pre-loaded Doe card on to the reader to make the payment and receive the products.</li><li>The readers access the payment info and immediately deduct the desired amount.</li></ul>",
				"DESCRIPTION_PART2": ""
			},
			"HOSPITALS": {
				"NAME": "HOSPITALS",
				"SUMMARY": "",
				"DESCRIPTION_PART1": "Hospitals will have the Doe readers installed across the building to provide access only for authorized personnel. All the hospital staff would be given Doe cards as their ID and access cards which they should use to gain entry into the restricted areas.",
				"DESCRIPTION_PART2": "The doe card held by the staff has a chip installed within which carries a unique embedded access credential and is read by the Doe reader when tapped onto it to grant access. Thereby providing safe and secure access to protect equipment, remove loiters and control the flow of movement within the Hospital premises."
			},
			"RESIDENCE": {
				"NAME": "RESIDENCE",
				"SUMMARY": "",
				"DESCRIPTION_PART1": "Install the Doe reader as a keycard reader on the doors of residential houses for residents to gain access to their homes. The embedded access credential in the Doe card chip (placed inside the card) is read by the Doe Reader every time the resident unlocks.",
				"DESCRIPTION_PART2": ""
			}
		}
	},
	"LOYALTY": {
		"ABOUT": {
			"INTRO_LINE": "Rewarding loyalty points <span class='financial-headpart loyalty_text_color'>efficiently!</span>",
			"SUB_TITLE": "White label your brand loyalty program on a DOE card and give your loyal customers the benefits of DOE services in a single card."
		},
		"SERVICES": {
			"RESTUARENT": {
				"NAME": "RESTUARENTS",
				"SUMMARY": "",
				"DESCRIPTION_PART1": "Reward regular diners with loyalty points when they make a payment with their Doe card.",
				"DESCRIPTION_PART2": ""
			},
			"AIRLINES": {
				"NAME": "AIRLINES",
				"SUMMARY": "",
				"DESCRIPTION_PART1": "Flyer miles of passengers can be calculated and stored in their individual Doe cards in the most precise and convenient format.",
				"DESCRIPTION_PART2": ""
			},
			"CLUBS": {
				"NAME": "CLUBS",
				"SUMMARY": "",
				"DESCRIPTION_PART1": "Reward guests with loyalty points when they use facilities belonging to the club.",
				"DESCRIPTION_PART2": ""
			},
			"RETAIL": {
				"NAME": "RETAIL",
				"SUMMARY": "",
				"DESCRIPTION_PART1": "For every purchase made by the customer with Doe cards, reward them with loyalty points and store it in the same Doe card. The readers will contain information regarding the same.",
				"DESCRIPTION_PART2": ""
			},
			"PETRO_CARDS": {
				"NAME": "PETRO CARDS",
				"SUMMARY": "",
				"DESCRIPTION_PART1": "Instal Doe readers to allow your regular customers with Doe cards to make payments and gain loyalty points. Doe Cards is a preloaded card which needs to be tapped onto the Doe reader to make payments and award points.",
				"DESCRIPTION_PART2": ""
			}
		}
	}

}
